…
``` r
pulse_data_tidy = 
  pivot_longer(
    pulse_data, 
    bdi_score_bl:bdi_score_12m,
    names_to = "visit", #specify range interested in, will end up with two new columns one visit and    
    names_prefix = "bdi_score", #specify range interested in, will end up with two new columns one visit and
    values_to = "bdi")          #values existing in rows, new column names need to exist in new variable
                                # so for this we do names_to, then names_prefix to assign the variable that                                  #will store these values 

pulse_data_tidy
```

    ## # A tibble: 4,348 × 5
    ##      id   age sex   visit   bdi
    ##   <dbl> <dbl> <chr> <chr> <dbl>
    ## 1 10003  48.0 male  _bl       7
    ## 2 10003  48.0 male  _01m      1
    ## 3 10003  48.0 male  _06m      2
    ## 4 10003  48.0 male  _12m      0
    ## 5 10015  72.5 male  _bl       6
    ## # ℹ 4,343 more rows
…
